C:\Users\trihebi\Desktop\PrisemutsWorldEdit\src\main\java\de\prisemut\pwe\math\Cube.java
C:\Users\trihebi\Desktop\PrisemutsWorldEdit\src\main\java\de\prisemut\pwe\math\Cylinder.java
C:\Users\trihebi\Desktop\PrisemutsWorldEdit\src\main\java\de\prisemut\pwe\listener\PositionListener.java
C:\Users\trihebi\Desktop\PrisemutsWorldEdit\src\main\java\de\prisemut\pwe\commands\Command.java
C:\Users\trihebi\Desktop\PrisemutsWorldEdit\src\main\java\de\prisemut\pwe\commands\FillCommand.java
C:\Users\trihebi\Desktop\PrisemutsWorldEdit\src\main\java\de\prisemut\pwe\Log.java
C:\Users\trihebi\Desktop\PrisemutsWorldEdit\src\main\java\de\prisemut\pwe\Messages.java
C:\Users\trihebi\Desktop\PrisemutsWorldEdit\src\main\java\de\prisemut\pwe\commands\CommandInterface.java
C:\Users\trihebi\Desktop\PrisemutsWorldEdit\src\main\java\de\prisemut\pwe\Core.java
